   1 +0.000e+00 +1.000e+00
   2 -2.816e+06 +5.241e-01
   3 -3.316e+06 +3.952e-01
   4 -3.536e+06 +3.880e-01
   5 -3.665e+06 +2.657e-01
   6 -3.746e+06 +1.905e-01
   7 -3.805e+06 +1.547e-01
   8 -3.842e+06 +1.509e-01
   9 -3.864e+06 +1.310e-01
  10 -3.882e+06 +1.158e-01
  11 -3.899e+06 +1.033e-01
